Introduction to covid19usa R package • covid19usa
…
The Shiny web application can be launched with a single line of code:

launch_app()

What the App Does

The Datasets

The package retrieves Covid-19 datasets from The New York Times) and Covidtracking.com. These datasets are combined with the U.S map data to provide an interactive map and other data visualisations to allow users to explore Covid-19 cases across the U.S. Several interactive features are included to allow for a more personalised information with the ability to manoeuvre between dates and states across U.S.

The datasets can be retrieved with theses functions embedded in the package:

covid_us_states %>% tibble() 
#> # A tibble: 11,904 x 8
#>    date       state   fips  cases deaths population cases_per_hnd deaths_per_hnd
#>    <date>     <chr>   <chr> <dbl>  <dbl>      <dbl>         <dbl>          <dbl>
#>  1 2020-01-21 Washin… 53        1      0    7614893          0.01              0
#>  2 2020-01-22 Washin… 53        1      0    7614893          0.01              0
#>  3 2020-01-23 Washin… 53        1      0    7614893          0.01              0
#>  4 2020-01-24 Illino… 17        1      0   12671821          0.01              0
#>  5 2020-01-24 Washin… 53        1      0    7614893          0.01              0
#>  6 2020-01-25 Califo… 06        1      0   39512223          0                 0
#>  7 2020-01-25 Illino… 17        1      0   12671821          0.01              0
#>  8 2020-01-25 Washin… 53        1      0    7614893          0.01              0
#>  9 2020-01-26 Arizona 04        1      0    7278717          0.01              0
#> 10 2020-01-26 Califo… 06        2      0   39512223          0.01              0
#> # … with 11,894 more rows

tests_raw %>% tibble()
#> # A tibble: 11,164 x 7
#>    date       state daily_cases total_cases total_tests daily_tests data_quality
#>    <date>     <chr>       <dbl>       <dbl>       <dbl>       <dbl> <chr>       
#>  1 2020-10-07 AK            274        9861      490074       10700 A           
#>  2 2020-10-07 AL            941      161418     1180818        7971 A           
#>  3 2020-10-07 AR            809       88880     1087671           0 A+          
#>  4 2020-10-07 AZ            604      222538     1518694        7267 A+          
#>  5 2020-10-07 CA           2764      831225    15556706      126285 B           
#>  6 2020-10-07 CO            654       74191     1459332       15070 A           
#>  7 2020-10-07 CT            123       59364     1752045        7611 B           
#>  8 2020-10-07 DC             45       15697      412656        2627 A+          
#>  9 2020-10-07 DE             84       21550      299173        1660 A+          
#> 10 2020-10-07 FL           2582      722707     5459711       26133 A           
#> # … with 11,154 more rows

us_pop_ests %>% tibble()
#> # A tibble: 51 x 2
#>    fips  population
#>    <chr>      <dbl>
#>  1 01       4903185
#>  2 02        723231
#>  3 04       7278717
#>  4 05       3017804
#>  5 06      39512223
#>  6 08       5758736
#>  7 09       3565287
#>  8 10        973764
#>  9 11        705749
#> 10 12      21477737
#> # … with 41 more rows

us_states_map %>% tibble()
#> # A tibble: 12,999 x 5
#>         lat      long group fips  abbr 
#>       <dbl>     <dbl> <chr> <chr> <chr>
#>  1 1091779. -1380695. 01.1  01    AL   
#>  2 1091268. -1376372. 01.1  01    AL   
#>  3 1091140. -1362998. 01.1  01    AL   
#>  4 1090940. -1343517. 01.1  01    AL   
#>  5 1090913. -1341006. 01.1  01    AL   
#>  6 1090796. -1334480. 01.1  01    AL   
#>  7 1090235. -1304438. 01.1  01    AL   
#>  8 1089944. -1289528. 01.1  01    AL   
#>  9 1089451. -1265304. 01.1  01    AL   
#> 10 1089305. -1258363. 01.1  01    AL   
#> # … with 12,989 more rows
…
